hw2/dump.vcd
$date
	Wed Feb 19 16:02:19 2020
$end
$version
	ModelSim Version 10.6d
$end
$timescale
	1ns
$end

$scope module shifter_hier_bench $end
$var parameter 32 ! N $end
$var parameter 32 " C $end
$var parameter 32 # O $end
$var reg 16 $ In [15:0] $end
$var reg 4 % Cnt [3:0] $end
$var reg 2 & Op [1:0] $end
$var wire 1 ' Out [15] $end
$var wire 1 ( Out [14] $end
$var wire 1 ) Out [13] $end
$var wire 1 * Out [12] $end
$var wire 1 + Out [11] $end
$var wire 1 , Out [10] $end
$var wire 1 - Out [9] $end
$var wire 1 . Out [8] $end
$var wire 1 / Out [7] $end
$var wire 1 0 Out [6] $end
$var wire 1 1 Out [5] $end
$var wire 1 2 Out [4] $end
$var wire 1 3 Out [3] $end
$var wire 1 4 Out [2] $end
$var wire 1 5 Out [1] $end
$var wire 1 6 Out [0] $end
$var reg 1 7 fail $end
$var reg 32 8 Expected [31:0] $end
$var integer 32 9 idx $end

$scope module DUT $end
$var parameter 32 : N $end
$var parameter 32 ; C $end
$var parameter 32 < O $end
$var wire 1 = In [15] $end
$var wire 1 > In [14] $end
$var wire 1 ? In [13] $end
$var wire 1 @ In [12] $end
$var wire 1 A In [11] $end
$var wire 1 B In [10] $end
$var wire 1 C In [9] $end
$var wire 1 D In [8] $end
$var wire 1 E In [7] $end
$var wire 1 F In [6] $end
$var wire 1 G In [5] $end
$var wire 1 H In [4] $end
$var wire 1 I In [3] $end
$var wire 1 J In [2] $end
$var wire 1 K In [1] $end
$var wire 1 L In [0] $end
$var wire 1 M Cnt [3] $end
$var wire 1 N Cnt [2] $end
$var wire 1 O Cnt [1] $end
$var wire 1 P Cnt [0] $end
$var wire 1 Q Op [1] $end
$var wire 1 R Op [0] $end
$var wire 1 ' Out [15] $end
$var wire 1 ( Out [14] $end
$var wire 1 ) Out [13] $end
$var wire 1 * Out [12] $end
$var wire 1 + Out [11] $end
$var wire 1 , Out [10] $end
$var wire 1 - Out [9] $end
$var wire 1 . Out [8] $end
$var wire 1 / Out [7] $end
$var wire 1 0 Out [6] $end
$var wire 1 1 Out [5] $end
$var wire 1 2 Out [4] $end
$var wire 1 3 Out [3] $end
$var wire 1 4 Out [2] $end
$var wire 1 5 Out [1] $end
$var wire 1 6 Out [0] $end
$var wire 1 S clk $end
$var wire 1 T rst $end
$var wire 1 U err $end

$scope module c0 $end
$var reg 1 V clk $end
$var reg 1 W rst $end
$var wire 1 U err $end
$var integer 32 X cycle_count $end
$upscope $end

$scope module s0 $end
$var parameter 32 Y N $end
$var parameter 32 Z C $end
$var parameter 32 [ O $end
$var wire 1 = In [15] $end
$var wire 1 > In [14] $end
$var wire 1 ? In [13] $end
$var wire 1 @ In [12] $end
$var wire 1 A In [11] $end
$var wire 1 B In [10] $end
$var wire 1 C In [9] $end
$var wire 1 D In [8] $end
$var wire 1 E In [7] $end
$var wire 1 F In [6] $end
$var wire 1 G In [5] $end
$var wire 1 H In [4] $end
$var wire 1 I In [3] $end
$var wire 1 J In [2] $end
$var wire 1 K In [1] $end
$var wire 1 L In [0] $end
$var wire 1 M Cnt [3] $end
$var wire 1 N Cnt [2] $end
$var wire 1 O Cnt [1] $end
$var wire 1 P Cnt [0] $end
$var wire 1 Q Op [1] $end
$var wire 1 R Op [0] $end
$var wire 1 ' Out [15] $end
$var wire 1 ( Out [14] $end
$var wire 1 ) Out [13] $end
$var wire 1 * Out [12] $end
$var wire 1 + Out [11] $end
$var wire 1 , Out [10] $end
$var wire 1 - Out [9] $end
$var wire 1 . Out [8] $end
$var wire 1 / Out [7] $end
$var wire 1 0 Out [6] $end
$var wire 1 1 Out [5] $end
$var wire 1 2 Out [4] $end
$var wire 1 3 Out [3] $end
$var wire 1 4 Out [2] $end
$var wire 1 5 Out [1] $end
$var wire 1 6 Out [0] $end
$var wire 1 \ out_stage1 [15] $end
$var wire 1 ] out_stage1 [14] $end
$var wire 1 ^ out_stage1 [13] $end
$var wire 1 _ out_stage1 [12] $end
$var wire 1 ` out_stage1 [11] $end
$var wire 1 a out_stage1 [10] $end
$var wire 1 b out_stage1 [9] $end
$var wire 1 c out_stage1 [8] $end
$var wire 1 d out_stage1 [7] $end
$var wire 1 e out_stage1 [6] $end
$var wire 1 f out_stage1 [5] $end
$var wire 1 g out_stage1 [4] $end
$var wire 1 h out_stage1 [3] $end
$var wire 1 i out_stage1 [2] $end
$var wire 1 j out_stage1 [1] $end
$var wire 1 k out_stage1 [0] $end
$var wire 1 l out_stage2 [15] $end
$var wire 1 m out_stage2 [14] $end
$var wire 1 n out_stage2 [13] $end
$var wire 1 o out_stage2 [12] $end
$var wire 1 p out_stage2 [11] $end
$var wire 1 q out_stage2 [10] $end
$var wire 1 r out_stage2 [9] $end
$var wire 1 s out_stage2 [8] $end
$var wire 1 t out_stage2 [7] $end
$var wire 1 u out_stage2 [6] $end
$var wire 1 v out_stage2 [5] $end
$var wire 1 w out_stage2 [4] $end
$var wire 1 x out_stage2 [3] $end
$var wire 1 y out_stage2 [2] $end
$var wire 1 z out_stage2 [1] $end
$var wire 1 { out_stage2 [0] $end
$var wire 1 | out_stage3 [15] $end
$var wire 1 } out_stage3 [14] $end
$var wire 1 ~ out_stage3 [13] $end
$var wire 1 !! out_stage3 [12] $end
$var wire 1 "! out_stage3 [11] $end
$var wire 1 #! out_stage3 [10] $end
$var wire 1 $! out_stage3 [9] $end
$var wire 1 %! out_stage3 [8] $end
$var wire 1 &! out_stage3 [7] $end
$var wire 1 '! out_stage3 [6] $end
$var wire 1 (! out_stage3 [5] $end
$var wire 1 )! out_stage3 [4] $end
$var wire 1 *! out_stage3 [3] $end
$var wire 1 +! out_stage3 [2] $end
$var wire 1 ,! out_stage3 [1] $end
$var wire 1 -! out_stage3 [0] $end
$upscope $end
$upscope $end
$upscope $end
$enddefinitions $end
#0
$dumpvars
b11010100100100 $
b1 %
b1 &
07
bx 8
1V
1W
b10000 !
b100 "
b10 #
b10000 :
b100 ;
b10 <
b10000 Y
b100 Z
b10 [
bx 9
b1 X
06
05
04
13
02
01
10
0/
0.
1-
0,
1+
0*
1)
1(
0'
1S
1T
0U
0k
0j
0i
1h
0g
0f
1e
0d
0c
1b
0a
1`
0_
1^
1]
0\
0{
0z
0y
1x
0w
0v
1u
0t
0s
1r
0q
1p
0o
1n
1m
0l
0-!
0,!
0+!
1*!
0)!
0(!
1'!
0&!
0%!
1$!
0#!
1"!
0!!
1~
1}
0|
1R
0Q
1P
0O
0N
0M
0L
0K
1J
0I
0H
1G
0F
0E
1D
0C
1B
0A
1@
1?
0>
0=
$end
#50
0V
0S
b110101001001000 8
#100
1V
1S
b101011001100011 $
b1101 %
b10 X
1N
1M
1L
1K
0J
1F
0D
1C
0?
1>
1j
1i
0h
1d
0b
1a
0]
1\
03
00
0-
0)
0*!
0'!
1&!
0$!
1#!
0"!
0}
1|
0+
0(
1'
1z
1y
0x
1t
0r
1q
0m
1l
1(!
1'!
0&!
1"!
0~
1}
1)
1(
0'
#150
0V
0S
b1010110011000110000000000000 8
#200
1V
1S
b1000010001100101 $
b10 %
b11 X
0P
1O
0N
0M
0K
1J
0C
0@
0>
1=
11
10
1,
1+
0)
1'
1,!
1+!
0(!
1&!
1~
0}
0z
0y
1x
1w
0u
0t
1s
1r
0q
0p
1o
1k
0j
1f
0d
0`
0^
1y
0x
1t
0r
0n
0l
0,!
0+!
1*!
1)!
0'!
0&!
1%!
1$!
0#!
0"!
1!!
15
14
01
1/
1)
0(
05
04
13
12
00
0/
1.
1-
0,
0+
1*
1+!
0*!
1&!
0$!
0~
0|
14
03
1/
0-
0)
0'
#201
0W
0T
#250
0V
0S
b100001000110010100 8
#300
1V
1S
b1100110100001101 $
b110 %
b100 X
1N
1I
0G
0F
1D
1A
1>
1h
0f
0e
1c
1`
1]
0+!
0)!
1'!
0&!
1"!
04
02
10
0/
1+
1v
0t
0s
1q
1n
1$!
0"!
0!!
1}
1-
0+
0*
1(
#350
0V
0S
b1100110100001101000000 8
#400
1V
1S
b101011111101101 $
b1100 %
b101 X
0O
1M
1G
1F
1E
1C
0A
1@
0=
1f
1e
1d
1b
0`
1_
0\
00
0.
0-
1{
1x
0w
0v
1s
1p
0o
0n
1m
1l
1)!
1&!
0%!
0$!
1!!
1|
1v
1u
1t
1r
0p
1o
0l
1$!
1#!
1"!
1~
0|
1*
1'
#450
0V
0S
b101011111101101000000000000 8
#500
1V
1S
b10010011000110 $
b101 %
b10 &
b110 X
0R
1Q
1P
0M
0L
1K
0I
0G
0D
0C
0@
1?
0>
1j
0i
0h
0d
0c
0a
0]
1,!
1+!
1*!
1(!
0&!
1%!
0$!
0"!
0!!
0~
0}
12
10
1/
1-
1,
1+
1)
0'
15
14
13
11
0/
1.
0-
0+
0*
0)
0(
1z
0y
0x
0t
0s
0q
0m
0*!
0)!
0'!
0#!
03
02
00
0,
#550
0V
0S
b11111 9
b11110 9
b11101 9
b11100 9
b11011 9
b11010 9
b1011111101101000000000000 8
b11001 9
b11000 9
b11111101101000000000000 8
b10111 9
b10110 9
b1111101101000000000000 8
b10101 9
b111101101000000000000 8
b10100 9
b11101101000000000000 8
b10011 9
b1101101000000000000 8
b10010 9
b101101000000000000 8
b10001 9
b1101000000000000 8
b10000 9
b1111 9
b10010011000110 8
b100100110 8
#600
1V
1S
b1111011111100101 $
b111 %
b111 X
1O
1L
0K
1G
1D
1C
1@
1>
1=
0k
1g
1d
1c
1`
1^
1]
1\
0{
0z
1x
1w
0v
0u
1t
0r
1q
0o
1-!
0,!
0+!
1*!
0(!
1'!
0%!
1y
1v
1u
1r
1p
1o
1n
1m
1l
1,!
1+!
1(!
1&!
1%!
1$!
1#!
1"!
1!!
1~
1}
1|
16
05
04
13
01
10
0.
15
14
11
1/
1.
1-
1,
1+
1*
1)
1(
1'
#650
0V
0S
b11111 9
b10000000000000000000000100100110 8
b11110 9
b11000000000000000000000100100110 8
b11101 9
b11100000000000000000000100100110 8
b11100 9
b11110000000000000000000100100110 8
b11011 9
b11111000000000000000000100100110 8
b11010 9
b11111100000000000000000100100110 8
b11001 9
b11111110000000000000000100100110 8
b11000 9
b11111111000000000000000100100110 8
b10111 9
b11111111100000000000000100100110 8
b10110 9
b11111111110000000000000100100110 8
b10101 9
b11111111111000000000000100100110 8
b10100 9
b11111111111100000000000100100110 8
b10011 9
b11111111111110000000000100100110 8
b10010 9
b11111111111111000000000100100110 8
b10001 9
b11111111111111100000000100100110 8
b10000 9
b11111111111111110000000100100110 8
b1111 9
b11111111111111111111011111100101 8
b11111111111111111111111111101111 8
#700
1V
1S
b1101101110001111 $
b10 %
b1000 X
0P
0N
1K
1I
0G
0F
0B
1A
0?
0-!
0,!
1)!
0%!
1k
1i
1h
0g
0f
0e
0^
1{
1z
0y
0x
0w
0p
06
05
12
0.
1-!
1,!
0+!
0*!
0)!
0"!
16
15
04
03
02
0+
#750
0V
0S
b11111 9
b11110 9
b11101 9
b11100 9
b11011 9
b11010 9
b11001 9
b11000 9
b10111 9
b10110 9
b10101 9
b10100 9
b10011 9
b10010 9
b10001 9
b10000 9
b1111 9
b11111111111111111101101110001111 8
b11111111111111111111011011100011 8
#800
1V
1S
b111101011101000 $
b101 %
b0 &
b1001 X
0Q
1P
0O
1N
0L
0K
0J
1G
1F
0D
1?
0=
0k
0j
0i
0h
1g
1e
0b
1a
0`
1^
1y
1x
0v
0u
1s
0q
1p
0n
1+!
1*!
1)!
0'!
0&!
1"!
0!!
0|
14
13
12
00
0/
1+
0*
0'
0,!
1'!
1&!
0$!
0#!
1!!
0}
1|
0{
0z
0y
0x
1w
1u
0r
1q
0p
1n
1,!
0)!
0(!
0'!
0&!
1%!
1#!
0~
1}
0|
05
10
1/
0-
0,
1*
0(
1'
15
02
01
00
0/
1.
1,
0)
1(
0'
#850
0V
0S
b11110101110100001111 8
#900
1V
1S
b10100010111101 $
b1101 %
b1 &
b1010 X
1R
1M
1L
1J
1H
0F
0C
0@
0>
1j
1h
1f
0d
0a
0^
0\
0-!
0,!
0+!
0*!
06
05
04
03
1-
0*
0(
0.
0-
0,
0+
1z
1x
1v
0t
0q
0n
0l
1(!
1&!
1$!
0"!
0}
1)
1'
#950
0V
0S
b101000101111010000000000000 8
#1000
1V
1S
b110001001100011 $
b1010 %
b0 &
b1011 X
0R
0P
1O
0N
1K
0J
0I
0H
1F
0E
1C
0A
1>
1k
0h
0g
0c
1b
0_
1^
1{
0z
0w
1t
1q
0o
1,!
1*!
1)!
1'!
0&!
0$!
0#!
1}
16
15
14
12
05
04
10
1-
1+
1*
1(
0'
1-!
0,!
0)!
1&!
1#!
0!!
1y
0v
0u
0q
1p
0m
1l
1+!
0(!
0'!
0#!
1"!
0}
1|
14
02
1.
0-
0*
1'
04
13
00
1/
1,
0)
0(
#1050
0V
0S
b1100010011000110110001001 8
#1100
1V
1S
b10000100100000 $
b1 &
b1100 X
1R
0L
0K
0F
1D
0C
0>
0k
0j
0e
1c
0b
0]
0{
06
03
0/
0-!
0y
0x
0s
1q
0p
0+!
0*!
0%!
1#!
0"!
0.
0,
0+
#1150
0V
0S
b100001001000000000000000 8
#1200
1V
1S
b11111010010110 $
b11 %
b1101 X
1P
0M
1K
1J
1H
0G
1E
0D
1C
1B
1A
1@
1/
1,
1i
1h
1a
1`
1_
1]
1w
1v
1o
1n
1m
1)!
1(!
1!!
1~
1}
12
11
1*
1)
1(
#1250
0V
0S
b11111010010110000 8
#1300
1V
1S
b1101011001010011 $
b1011 %
b1110 X
1M
1L
0J
1F
0E
0A
0?
1>
1=
1j
0h
1d
0c
0_
0]
1\
02
01
0/
0,
0(
1x
0v
1r
0q
0m
1*!
0(!
1$!
0#!
0}
1+
0)
#1350
0V
0S
b110101100101001100000000000 8
#1400
1V
1S
b100101000000010 $
b1110 %
b1111 X
0P
1N
0L
0H
0F
0B
1A
0@
0=
0*!
0)!
1%!
0$!
1"!
0!!
0|
0i
0f
0d
1b
0a
0^
1]
0\
0w
0t
0r
1p
0o
0l
0+
0*
0%!
0"!
0~
1|
#1450
0V
0S
b10010100000001000000000000000 8
#1500
1V
1S
b111001011001111 $
b11 %
b10 &
b10000 X
0R
1Q
1P
0N
0M
1L
1J
1I
1F
1E
0A
1@
1?
1k
1i
1f
1e
1c
0b
1_
1^
0]
0x
1t
1r
0p
1o
0n
1*!
0&!
1"!
1~
0|
1/
13
0/
1+
1)
0'
0*!
1&!
1$!
0"!
1!!
0~
1{
1x
1w
1u
0t
1q
1p
0o
1-!
1*!
1)!
1'!
0&!
1#!
1"!
0!!
03
1/
1-
0+
1*
0)
16
13
12
10
0/
1,
1+
0*
#1550
0V
0S
b11111 9
b11110 9
b11101 9
b11100 9
b10100000001000000000000000 8
b11011 9
b11010 9
b11001 9
b100000001000000000000000 8
b11000 9
b10111 9
b1000000000000000 8
b10110 9
b10101 9
b10100 9
b10011 9
b10010 9
b10001 9
b10000 9
b1111 9
b111001011001111 8
b111001011001 8
#1600
1V
1S
b101011001010 $
b1100 %
b10001 X
0P
0O
1N
1M
0L
0J
1A
0@
0?
0>
06
15
14
02
00
0-
0,
0+
1+!
0*!
0)!
1(!
1&!
0$!
0#!
0"!
1z
1y
0x
0w
1v
1s
0r
0q
1o
1n
0k
0i
1h
0f
1d
0c
1b
0_
0^
0{
0y
1x
0v
1t
0s
1r
0o
0n
0-!
1,!
1)!
0(!
0'!
1%!
1$!
05
04
03
16
15
0,!
1*!
0)!
1(!
0%!
0$!
06
05
#1650
0V
0S
b11111 9
b11110 9
b11101 9
b11100 9
b11011 9
b11010 9
b11001 9
b11000 9
b10111 9
b10110 9
b10101 9
b10100 9
b10011 9
b10010 9
b10001 9
b10000 9
b1111 9
b101011001010 8
b0 8
#1700
1V
1S
b110000110001010 $
b1 %
b0 &
b10010 X
0Q
1P
0N
0M
0F
1D
0C
0A
1?
1>
0j
1i
0h
1g
0e
0d
1c
0`
1]
1\
1,!
0+!
0(!
1'!
1$!
1"!
14
13
11
1/
15
04
01
10
1-
1+
0z
1y
0x
1w
0u
0t
1s
0p
1m
1l
0,!
1+!
0*!
1)!
0'!
0&!
1%!
0"!
1}
1|
05
14
03
12
00
0/
1.
0+
1(
1'
#1750
0V
0S
b1100001100010100 8
#1800
1V
1S
b1111001101111000 $
b1001 %
b11 &
b10011 X
1R
1Q
1M
0K
1H
1G
1F
0E
1C
1@
1=
1h
1f
1d
0b
1`
1_
1^
0\
16
15
04
02
10
1/
0.
0-
0(
0'
1x
1v
1t
0r
1p
1o
1n
0l
1*!
1(!
1&!
0$!
1"!
1!!
1~
0|
05
13
12
11
0/
#1850
0V
0S
b1111001 8
#1900
1V
1S
b110010110110110 $
b110 %
b10 &
b10100 X
0R
0P
1O
1N
0M
1K
1J
0I
0F
1E
0C
1B
0@
0=
1j
0h
1a
0`
0_
1{
1z
0w
1u
0t
0s
1r
1q
0n
0m
1-!
1,!
0+!
0(!
1$!
1#!
0"!
0!!
0~
0}
06
14
00
1/
1.
1+
1*
1)
1(
16
15
04
01
1-
1,
0+
0*
0)
0(
0-!
1+!
0*!
0)!
1(!
1'!
0$!
0#!
0z
1s
0r
0q
1)!
0(!
0'!
06
14
03
02
11
10
0-
0,
12
01
00
#1950
0V
0S
b11111 9
b11110 9
b11101 9
b11100 9
b11011 9
b11010 9
b11001 9
b11000 9
b10111 9
b10110 9
b10101 9
b10100 9
b10011 9
b10010 9
b10001 9
b10000 9
b1111 9
b110010110110110 8
b110010110 8
#2000
1V
1S
b1010111100 $
b1010 %
b11 &
b10101 X
1R
0N
1M
0K
1I
0D
1C
0B
0?
0>
0j
1h
0c
1b
0a
0^
0]
1-!
0,!
1*!
0)!
1(!
1'!
0&!
1"!
1!!
16
05
04
02
0/
0.
13
12
1z
0u
1t
0s
0p
0o
1,!
0'!
1&!
0%!
0"!
0!!
06
03
02
#2050
0V
0S
b0 8
#2100
1V
1S
b1011111001110001 $
b101 %
b10110 X
1P
0O
1N
0M
1L
0J
0I
1F
0E
1B
1A
1@
1?
1=
16
15
14
13
11
1/
0-!
0+!
0(!
0&!
0{
0z
1w
1r
0i
0d
1c
1a
1`
1_
1]
0y
0t
1s
1q
1p
1o
1m
1-!
1(!
06
04
01
0/
16
11
0*!
1)!
1'!
1&!
1%!
1#!
03
12
10
1/
1.
1,
#2150
0V
0S
b10111110011 8
#2200
1V
1S
b110000000111011 $
b1010 %
b10 &
b10111 X
0R
0P
1O
0N
1M
1K
1I
0F
0C
0B
0A
0@
1>
0=
1k
1j
0c
0b
0a
0`
0_
1^
1z
1y
0w
0v
1u
1t
0p
0m
0-!
0,!
1*!
0'!
0&!
1$!
1"!
1!!
1}
05
14
02
01
00
0/
0.
0,
15
13
12
10
1,!
1+!
0)!
0(!
1'!
1&!
0"!
0}
0u
0t
0s
0r
0q
1p
0'!
0&!
0%!
0$!
0#!
1"!
03
00
06
05
04
13
#2250
0V
0S
b11111 9
b11110 9
b11101 9
b11100 9
b11011 9
b11010 9
b11001 9
b11000 9
b10111 9
b10110 9
b10101 9
b10100 9
b10011 9
b10010 9
b10001 9
b10000 9
b1111 9
b110000000111011 8
b11000 8
#2300
1V
1S
b100101100010101 $
b1 %
b1 &
b11000 X
1R
0Q
1P
0O
0M
0K
1J
0I
0G
1D
1C
1A
0?
0k
0g
1b
1a
1_
0^
0]
1\
1{
0y
1w
1v
0p
0o
1n
1m
15
14
02
1+
1*
1-!
0+!
1)!
1(!
0"!
0!!
1~
1}
0{
0w
1r
1q
1o
0n
0m
1l
0-!
0)!
1$!
1#!
1!!
0~
0}
1|
16
04
12
11
0+
0*
1)
1(
06
02
1-
1,
1*
0)
0(
1'
#2350
0V
0S
b1001011000101010 8
#2400
1V
1S
b11101100010 $
b1100 %
b11 &
b11001 X
1Q
0P
1N
1M
0L
1K
0J
0H
1G
1F
1B
0A
0>
0h
1e
1c
0_
0\
0*!
1'!
1%!
0$!
0#!
1"!
0!!
0|
14
03
12
01
1/
0-
0,
0*
0'
16
05
04
13
02
0/
0x
1u
1s
0o
0l
1+!
1)!
0%!
0"!
06
03
#2450
0V
0S
b0 8
#2500
1V
1S
b1010000110001111 $
b1000 %
b11010 X
0N
1L
1J
1I
0G
0F
1E
0C
0B
1?
1=
1k
1i
1h
0f
0e
1d
0b
0a
1^
1\
0+!
0)!
1%!
1$!
1#!
16
15
14
1{
1y
1x
0v
0u
1t
0r
0q
1n
1l
1-!
1+!
1*!
0(!
0'!
1&!
0$!
0#!
1~
1|
05
04
11
1/
#2550
0V
0S
b10100001 8
#2600
1V
1S
b101011010011111 $
b1100 %
b11011 X
1N
1H
0D
1C
1B
1@
0?
1>
0=
1g
0c
1b
1a
1_
0^
1]
0\
0-!
0,!
0+!
1)!
0&!
0%!
1$!
1"!
0~
0|
06
15
13
01
0/
1w
0s
1r
1q
1o
0n
1m
0l
1-!
0)!
1(!
1'!
1%!
0$!
1#!
0"!
16
05
14
03
#2650
0V
0S
b101 8
#2700
1V
1S
b11011110001001 $
b1001 %
b0 &
b11100 X
0R
0Q
1P
0N
0K
0J
0H
1D
1?
0>
0k
0i
0h
0d
1c
1`
0_
1^
1,!
1+!
1)!
0(!
0'!
1&!
0%!
1$!
1!!
1}
1.
1+
1)
1(
06
15
12
10
1-
1,
1*
0)
0(
1'
0{
0y
0x
0t
1s
1p
0o
1n
0-!
0+!
0*!
0&!
1%!
1"!
0!!
1~
16
13
02
11
0.
0,
0+
0'
#2750
0V
0S
b11011110001001001101111 8
#2800
1V
1S
b1100000011010111 $
b1 %
b10 &
b11101 X
1Q
0M
1K
1J
0I
1H
1F
0D
0C
0B
0@
0?
1>
1=
1k
1h
0g
1f
1e
0c
0b
0a
0`
1\
06
04
03
12
01
00
1.
1,
1+
0*
1)
1(
1{
1x
0w
1v
1u
0s
0r
0q
0p
1l
1-!
1*!
0)!
1(!
1'!
0%!
0$!
0#!
0"!
1|
16
13
02
11
10
0.
0-
0,
0+
1'
#2850
0V
0S
b11111 9
b10000000011011110001001001101111 8
b11110 9
b11000000011011110001001001101111 8
b11101 9
b11100000011011110001001001101111 8
b11100 9
b11110000011011110001001001101111 8
b11011 9
b11111000011011110001001001101111 8
b11010 9
b11111100011011110001001001101111 8
b11001 9
b11111110011011110001001001101111 8
b11000 9
b11111111011011110001001001101111 8
b10111 9
b11111111111011110001001001101111 8
b10110 9
b10101 9
b10100 9
b11111111111111110001001001101111 8
b10011 9
b10010 9
b10001 9
b10000 9
b1111 9
b11111111111111111100000011010111 8
b11111111111111111110000001101011 8
#2900
1V
1S
b111111100001100 $
b10 %
b0 &
b11110 X
0Q
0P
1O
0L
0K
1I
0H
0F
0E
1D
1C
1B
1A
1@
1?
0=
0k
0j
1i
0f
0e
1c
1b
1a
1`
1_
0\
1y
0u
1t
1s
0n
0m
1+!
0'!
1&!
1%!
0~
0}
0z
0y
0x
1w
0t
0s
1q
1p
1o
1n
1m
0,!
0+!
0*!
1)!
0&!
0%!
1#!
1"!
1!!
1~
1}
14
00
1/
1.
0)
0(
05
04
03
12
0/
0.
1,
1+
1*
1)
1(
#2950
0V
0S
b11111110000110001 8
#3000
1V
1S
b101101001110111 $
b1101 %
b10 &
b11111 X
1Q
1P
0O
1N
1M
1L
1K
0I
1H
1G
1F
0D
0B
0?
1k
1j
0i
1g
1f
0b
0_
0]
0{
1y
1x
0w
0v
1s
1r
0l
1,!
0)!
0(!
1'!
1&!
1%!
1$!
06
14
13
10
1/
1.
1-
16
15
0-!
0,!
1)!
1(!
0"!
0!!
0~
0}
0|
1{
1z
0y
1w
1v
0r
0o
0m
1-!
1,!
0(!
0%!
0#!
03
02
01
00
0/
0.
0-
0,
0+
0*
0)
0(
0'
06
04
#3050
0V
0S
b11111 9
b11110 9
b11101 9
b11100 9
b11011 9
b11010 9
b11001 9
b11000 9
b10111 9
b10110 9
b10101 9
b10100 9
b10011 9
b10010 9
b10001 9
b10000 9
b1111110000110001 8
b1111 9
b101101001110111 8
b10 8
#3100
1V
1S
b1111110 $
b1 &
b100000 X
1R
0Q
0L
1I
0C
0A
0@
0>
0k
0j
1i
1e
1d
0c
0a
0`
0^
0-!
0,!
1(!
0'!
1%!
1!!
1}
1|
05
1.
1-
1*
1(
1'
0.
0-
1)
0(
0{
0z
1y
1u
1t
0s
0q
0p
0n
0)!
0(!
1'!
1#!
1"!
0!!
0}
0|
0*
0)
1(
#3150
0V
0S
b11111100000000000000 8
#3200
1V
1S
b1000111100011111 $
b11 %
b100001 X
1O
0N
0M
1L
0G
0F
1D
1C
1B
1A
1=
1j
0e
0d
1b
1a
1`
1_
10
1/
1.
1-
1,
1+
0(
0'
1+!
1*!
1)!
1(!
0%!
0$!
0#!
0"!
0y
0x
1s
1r
0+!
0*!
1%!
1$!
14
13
12
11
0.
0-
0,
0+
1x
0s
0r
1p
1o
1n
1m
1*!
0%!
0$!
1"!
1!!
1~
1}
04
03
1.
1-
13
0.
0-
1+
1*
1)
1(
#3250
0V
0S
b1000111100011111000 8
#3300
1V
1S
b1000100001111000 $
b1011 %
b100010 X
1M
0L
0K
0J
1G
1F
0D
0C
0B
0j
0i
0h
1e
1d
0b
0a
0`
03
02
01
00
0/
1'
0x
0w
0v
1s
1r
0p
0o
0n
0*!
0)!
0(!
1%!
1$!
0"!
0!!
0~
0+
0*
0)
#3350
0V
0S
b100010000111100000000000000 8
#3400
1V
1S
b1010111000111111 $
b1010 %
b0 &
b100011 X
0R
0P
1L
1K
1J
0F
1C
1B
1?
1k
1j
1i
1h
0e
0d
1b
1a
1`
0_
1^
1\
16
15
10
1z
1y
1x
1w
1v
0s
0r
1p
1o
1n
0m
1l
1,!
1+!
1*!
1)!
1(!
0%!
0$!
1"!
1!!
1~
0}
1|
06
05
13
12
11
00
1/
1-
1,
1+
1*
1)
#3450
0V
0S
b10101110001111111010111000 8
#3500
1V
1S
b11100010000110 $
b1110 %
b100100 X
1N
0L
0I
0H
0G
1E
0C
0B
1@
0=
0k
0h
0g
0f
1d
0b
0a
1_
0\
1-!
0+!
0)!
1%!
1$!
1#!
0!!
0~
16
15
14
02
01
1.
0,
0*
0z
0y
0v
0u
0t
1r
0p
0o
1m
0-!
1+!
0(!
0'!
0$!
0#!
0"!
1~
0|
05
04
03
11
0/
0.
1,
0)
0(
#3550
0V
0S
b1110001000011000111000100001 8
#3600
1V
1S
b1001100111111010 $
b110 %
b11 &
b100101 X
1R
1Q
0M
0J
1I
1H
1G
1F
1D
0?
1=
0i
1h
1g
1f
1e
1c
0^
1\
1{
0x
0w
1v
1q
1p
0n
0m
0l
1-!
0,!
0+!
0*!
1(!
0&!
0%!
1$!
1#!
1"!
0~
06
15
14
13
01
1/
1.
0-
0,
0+
1)
0'
16
05
04
03
11
0/
0.
1-
1,
1+
0)
0-!
1,!
1'!
1&!
0$!
0#!
0"!
0{
1z
1y
1x
1w
1u
0p
1n
1-!
1+!
0&!
1$!
06
15
10
1/
0-
0,
0+
16
14
0/
1-
#3650
0V
0S
b1001100111 8
#3700
1V
1S
b1011010010100011 $
b1111 %
b100110 X
1P
1M
1L
0I
0H
0F
0D
1B
0A
1?
06
04
01
00
0-
1k
0j
0h
0f
0d
0c
1b
1]
0\
0z
0x
0v
0u
1t
1o
0n
0,!
0+!
1*!
1%!
0$!
16
05
#3750
0V
0S
b1 8
#3800
1V
1S
b101011001011111 $
b100 %
b100111 X
0P
0O
0M
1J
1I
1H
0G
1F
0E
1C
0?
1>
0=
13
11
10
1.
1{
0y
1u
0t
0q
1p
1m
1j
1i
1h
1a
0`
1z
1y
1x
1q
0p
1+!
0*!
0'!
1&!
1#!
14
03
00
1/
1,
1'!
0&!
10
0/
#3850
0V
0S
b10101100101 8
#3900
1V
1S
b11011011001011 $
b110 %
b10 &
b101000 X
0R
1O
0J
0H
1E
1?
0>
0i
0g
1d
1^
0]
0x
0u
1t
1s
0r
0m
0+!
1*!
1)!
0(!
0#!
0{
0y
1v
1p
0o
1,!
1&!
0%!
04
13
12
01
0,
15
1/
0.
#3950
0V
0S
b11111 9
b11110 9
b11101 9
b11100 9
b11011 9
b11010 9
b11001 9
b11000 9
b10111 9
b10110 9
b10101 9
b10100 9
b10011 9
b10010 9
b10001 9
b10000 9
b1111 9
b11011011001011 8
b11011011 8
#4000
1V
1S
b1100000100101001 $
b1101 %
b101001 X
1P
0O
1M
0K
1G
0F
0E
1D
0C
0B
0@
0?
1>
1=
06
05
03
02
00
0/
1{
1x
0w
0v
1u
0s
1r
0p
1o
1n
0k
0j
1i
0h
1g
0e
0b
0a
0_
1]
1\
0{
0z
1y
0x
1w
0u
0r
0q
0o
1m
1l
0-!
0,!
1+!
0)!
1(!
0&!
1%!
1$!
16
15
1-!
0+!
0(!
0'!
0%!
1#!
1"!
1!!
1~
1}
1|
06
14
13
12
11
10
1/
1.
1-
1,
1+
1*
1)
1(
1'
#4050
0V
0S
b11111 9
b10000000000000000000000011011011 8
b11110 9
b11000000000000000000000011011011 8
b11101 9
b11100000000000000000000011011011 8
b11100 9
b11110000000000000000000011011011 8
b11011 9
b11111000000000000000000011011011 8
b11010 9
b11111100000000000000000011011011 8
b11001 9
b11111110000000000000000011011011 8
b11000 9
b11111111000000000000000011011011 8
b10111 9
b11111111100000000000000011011011 8
b10110 9
b11111111110000000000000011011011 8
b10101 9
b11111111111000000000000011011011 8
b10100 9
b11111111111100000000000011011011 8
b10011 9
b11111111111110000000000011011011 8
b10010 9
b11111111111111000000000011011011 8
b10001 9
b11111111111111100000000011011011 8
b10000 9
b11111111111111110000000011011011 8
b1111 9
b11111111111111111100000100101001 8
b11111111111111111111111111111110 8
